{
	"name" : "Especiais",
	"description" : "Bem Paraná - Plugin para configurações da Especiais",

	"author" : "Rodrigo Alves",
	"authorEmail" : "alves@mswi.com.br",
	"authorUrl" : "http://mswi.com.br"
}