{
    "name": "Impressos",
    "description": "Tema Impressos",
    "screenshot": "screenshot.png",
    "author": "Mswi",
    "authorEmail": "suporte@mswi.com.br",
    "authorUrl": "http://www.mswi.com.br",
    "menus": [
        "main"
    ],
    "regions": [
        "destaque",
        "home"
    ]
}